<svg width="408" height="262" viewBox="0 0 408 262" fill="none" xmlns="http://www.w3.org/2000/svg">
<path d="M407.5 75.7979C407.5 62.5431 396.755 51.798 383.5 51.798H189.427C176.172 51.798 165.427 41.0528 165.427 27.798V24.2676C165.427 11.0127 154.682 0.267578 141.427 0.267578H24.8156C11.5607 0.267578 0.815552 11.0127 0.815552 24.2676V237.324C0.815552 250.579 11.5607 261.324 24.8156 261.324H383.5C396.755 261.324 407.5 250.579 407.5 237.324V75.7979Z" fill="white"/>
<path d="M407 75.7979C407 62.8193 396.479 52.298 383.5 52.298H189.427C175.896 52.298 164.927 41.3289 164.927 27.798V24.2676C164.927 11.2889 154.406 0.767578 141.427 0.767578H24.8156C11.8369 0.767578 1.31555 11.2889 1.31555 24.2676V237.324C1.31555 250.303 11.8369 260.824 24.8156 260.824H383.5C396.479 260.824 407 250.303 407 237.324V75.7979Z" stroke="#0F5336" stroke-opacity="0.3"/>
</svg>
